FILE UPLOAD MIDDLEWARE
app.use(bodyParser({
    formidable: {uploadDir: './static/static/uploads'},
    multipart: true,
    urlencoded: true
}));

--------------------
/APP/PAGE
/TEST/GL

-------------------------
<%= userdetails.first_name %> 

         <% if(showEmail){ %>
            <%= userdetails.email %>
        <% } else{ %>
            <%= userdetails.mobile_no %>
        <% } %>

----------------------------
<% for(var i in userList){ %>
            <p><%= userList[i].email %></p>
        <% } %>